Praticas/P1/Parte3/simulation/qsim/LogicDemo.msim.vcd
$comment
	File created using the following command:
		vcd file LogicDemo.msim.vcd -direction
$end
$date
	Tue Feb 14 12:15:51 2023
$end
$version
	ModelSim Version 2020.1
$end
$timescale
	1ps
$end

$scope module logictop_vhd_vec_tst $end
$var wire 1 ! LEDG [5] $end
$var wire 1 " LEDG [4] $end
$var wire 1 # LEDG [3] $end
$var wire 1 $ LEDG [2] $end
$var wire 1 % LEDG [1] $end
$var wire 1 & LEDG [0] $end
$var wire 1 ' SW [1] $end
$var wire 1 ( SW [0] $end

$scope module i1 $end
$var wire 1 ) gnd $end
$var wire 1 * vcc $end
$var wire 1 + unknown $end
$var wire 1 , devoe $end
$var wire 1 - devclrn $end
$var wire 1 . devpor $end
$var wire 1 / ww_devoe $end
$var wire 1 0 ww_devclrn $end
$var wire 1 1 ww_devpor $end
$var wire 1 2 ww_LEDG [5] $end
$var wire 1 3 ww_LEDG [4] $end
$var wire 1 4 ww_LEDG [3] $end
$var wire 1 5 ww_LEDG [2] $end
$var wire 1 6 ww_LEDG [1] $end
$var wire 1 7 ww_LEDG [0] $end
$var wire 1 8 ww_SW [1] $end
$var wire 1 9 ww_SW [0] $end
$var wire 1 : \LEDG[5]~output_o\ $end
$var wire 1 ; \LEDG[4]~output_o\ $end
$var wire 1 < \LEDG[3]~output_o\ $end
$var wire 1 = \LEDG[2]~output_o\ $end
$var wire 1 > \LEDG[1]~output_o\ $end
$var wire 1 ? \LEDG[0]~output_o\ $end
$var wire 1 @ \SW[1]~input_o\ $end
$var wire 1 A \SW[0]~input_o\ $end
$var wire 1 B \LogicUnit|norOut~0_combout\ $end
$var wire 1 C \LogicUnit|nandOut~0_combout\ $end
$var wire 1 D \LogicUnit|xorOut~combout\ $end
$var wire 1 E \ALT_INV_SW[0]~input_o\ $end
$var wire 1 F \LogicUnit|ALT_INV_nandOut~0_combout\ $end
$var wire 1 G \LogicUnit|ALT_INV_norOut~0_combout\ $end
$upscope $end
$upscope $end
$enddefinitions $end
#0
$dumpvars
0)
1*
x+
1,
1-
1.
1/
10
11
0:
1;
1<
1=
0>
0?
0@
1A
1B
0C
1D
0E
1F
0G
0'
1(
02
13
14
15
06
07
08
19
0!
1"
1#
1$
0%
0&
$end
#50000
1'
18
1@
1C
0D
0F
0<
1>
0;
04
16
03
1%
0#
0"
#100000
0'
0(
09
08
0@
0A
1E
0B
0C
1F
1G
1?
0>
0=
17
1:
1;
06
05
1&
12
13
0%
0$
1"
1!
#150000
1'
18
1@
1B
1D
0G
1<
1=
0:
14
15
02
1$
1#
0!
#200000
0'
1(
19
08
0@
1A
0E
0?
07
0&
#300000
0(
09
0A
1E
0B
0D
1G
1?
0<
0=
17
1:
04
05
1&
12
0$
0#
1!
#350000
1'
18
1@
1B
1D
0G
1<
1=
0:
14
15
02
1$
1#
0!
#400000
0'
1(
19
08
0@
1A
0E
0?
07
0&
#450000
1'
0(
09
18
1@
0A
1E
1?
17
1&
#500000
1(
19
1A
0E
1C
0D
0F
0?
0<
1>
07
0;
04
16
0&
03
1%
0#
0"
#550000
0(
0'
09
08
0@
0A
1E
0B
0C
1F
1G
1?
0>
0=
17
1:
1;
06
05
1&
12
13
0%
0$
1"
1!
#600000
1'
18
1@
1B
1D
0G
1<
1=
0:
14
15
02
1$
1#
0!
#650000
0'
1(
19
08
0@
1A
0E
0?
07
0&
#700000
1'
0(
09
18
1@
0A
1E
1?
17
1&
#800000
0'
08
0@
0B
0D
1G
0<
0=
1:
04
05
12
0$
0#
1!
#850000
1(
19
1A
0E
1B
1D
0G
0?
1<
1=
07
0:
14
15
0&
02
1$
1#
0!
#900000
0(
1'
09
18
1@
0A
1E
1?
17
1&
#950000
1(
19
1A
0E
1C
0D
0F
0?
0<
1>
07
0;
04
16
0&
03
1%
0#
0"
