Praticas/P3/Parte1/simulation/qsim/AdderDemo.msim.vcd
$comment
	File created using the following command:
		vcd file AdderDemo.msim.vcd -direction
$end
$date
	Sat Feb 25 21:57:13 2023
$end
$version
	ModelSim Version 2020.1
$end
$timescale
	1ps
$end

$scope module adder4_vhd_vec_tst $end
$var wire 1 ! a [3] $end
$var wire 1 " a [2] $end
$var wire 1 # a [1] $end
$var wire 1 $ a [0] $end
$var wire 1 % b [3] $end
$var wire 1 & b [2] $end
$var wire 1 ' b [1] $end
$var wire 1 ( b [0] $end
$var wire 1 ) cin $end
$var wire 1 * cout $end
$var wire 1 + s [3] $end
$var wire 1 , s [2] $end
$var wire 1 - s [1] $end
$var wire 1 . s [0] $end

$scope module i1 $end
$var wire 1 / gnd $end
$var wire 1 0 vcc $end
$var wire 1 1 unknown $end
$var wire 1 2 devoe $end
$var wire 1 3 devclrn $end
$var wire 1 4 devpor $end
$var wire 1 5 ww_devoe $end
$var wire 1 6 ww_devclrn $end
$var wire 1 7 ww_devpor $end
$var wire 1 8 ww_a [3] $end
$var wire 1 9 ww_a [2] $end
$var wire 1 : ww_a [1] $end
$var wire 1 ; ww_a [0] $end
$var wire 1 < ww_b [3] $end
$var wire 1 = ww_b [2] $end
$var wire 1 > ww_b [1] $end
$var wire 1 ? ww_b [0] $end
$var wire 1 @ ww_cin $end
$var wire 1 A ww_s [3] $end
$var wire 1 B ww_s [2] $end
$var wire 1 C ww_s [1] $end
$var wire 1 D ww_s [0] $end
$var wire 1 E ww_cout $end
$var wire 1 F \s[0]~output_o\ $end
$var wire 1 G \s[1]~output_o\ $end
$var wire 1 H \s[2]~output_o\ $end
$var wire 1 I \s[3]~output_o\ $end
$var wire 1 J \cout~output_o\ $end
$var wire 1 K \a[0]~input_o\ $end
$var wire 1 L \b[0]~input_o\ $end
$var wire 1 M \cin~input_o\ $end
$var wire 1 N \bit0|s~0_combout\ $end
$var wire 1 O \b[1]~input_o\ $end
$var wire 1 P \a[1]~input_o\ $end
$var wire 1 Q \bit0|cout~0_combout\ $end
$var wire 1 R \bit1|s~combout\ $end
$var wire 1 S \bit1|cout~0_combout\ $end
$var wire 1 T \a[2]~input_o\ $end
$var wire 1 U \b[2]~input_o\ $end
$var wire 1 V \bit2|s~combout\ $end
$var wire 1 W \bit2|cout~0_combout\ $end
$var wire 1 X \a[3]~input_o\ $end
$var wire 1 Y \b[3]~input_o\ $end
$var wire 1 Z \bit3|s~combout\ $end
$var wire 1 [ \bit3|cout~0_combout\ $end
$upscope $end
$upscope $end
$enddefinitions $end
#0
$dumpvars
0)
1*
0/
10
x1
12
13
14
15
16
17
0@
1E
0F
1G
1H
1I
1J
1K
1L
0M
0N
1O
1P
1Q
1R
1S
1T
1U
1V
1W
1X
1Y
1Z
1[
1!
1"
1#
1$
1%
1&
1'
1(
18
19
1:
1;
1<
1=
1>
1?
1A
1B
1C
0D
1+
1,
1-
0.
$end
#40000
1)
0%
0&
0'
0(
1@
0?
0>
0=
0<
0Y
0U
0O
0L
1M
0R
0V
0Z
0I
0H
0G
0A
0B
0C
0-
0,
0+
#80000
0)
1%
1&
0"
0$
0@
1=
1<
0;
09
0T
0K
1Y
1U
0M
1Z
0Q
1R
0S
1V
0W
1I
0Z
1A
1G
1+
1C
1H
1-
1B
0I
1,
0A
0+
#120000
1)
0%
0&
1"
1$
0#
1@
0=
0<
1;
0:
19
1T
0P
1K
0Y
0U
1M
1Z
0[
1Q
0R
1R
0G
0J
1I
0C
0E
1A
1G
0-
1+
0*
1C
1-
#170000
0$
1#
0!
0;
1:
08
0X
1P
0K
1N
0Q
0R
1S
0Z
0V
1W
1R
0S
1V
0W
1Z
0I
0G
1F
0Z
0A
0C
1D
1G
0H
1.
0-
0+
1C
0B
1I
1H
1-
0,
1A
1B
0I
1,
1+
0A
0+
#180000
1%
1&
1'
1(
1?
1>
1=
1<
1Y
1U
1O
1L
0N
1Q
0R
1S
0V
1W
1Z
0Z
1[
1V
1R
1I
0H
0G
0F
1A
0B
0C
0D
1G
1H
1J
0I
0.
0-
0,
1+
1C
1B
1E
0A
1-
1,
0+
1*
#220000
0#
0)
0:
0@
0M
0P
0R
1N
0Q
1R
0S
0V
1F
0G
1D
0C
1G
1.
0-
1C
0H
1-
0B
0,
#230000
0%
0&
0'
0>
0=
0<
0Y
0U
0O
0R
1V
0W
1Z
0[
0Z
0J
1I
1H
0G
0E
1A
1B
0C
0I
0*
0-
1,
1+
0A
0+
#270000
1#
1$
1!
1;
1:
18
1X
1P
1K
0N
1Q
1R
1Z
0R
1S
0V
1W
1I
1G
0F
0Z
1[
1A
1C
0D
0G
0.
1-
1+
0C
0H
0-
0B
1J
0I
0,
1E
0A
1*
0+
#280000
1'
1>
1O
1R
1G
1C
1-
#320000
0#
0$
0!
0"
0;
0:
09
08
0X
0T
0P
0K
1N
0Q
0R
1V
0W
1Z
0[
0Z
1R
0S
0V
0J
1I
1H
0G
1F
0E
1A
1B
0C
1D
1G
0I
0*
1.
0-
1,
1+
1C
0A
0H
1-
0+
0B
0,
#330000
0'
0>
0O
0R
0G
0C
0-
#370000
1#
1!
1"
1:
19
18
1X
1T
1P
1R
1V
1Z
1I
1H
1G
1A
1B
1C
1-
1,
1+
#380000
1%
1&
1=
1<
1Y
1U
0V
1W
0Z
1[
1Z
1J
0I
0H
1E
0A
0B
1I
1*
0,
0+
1A
1+
#420000
1$
1)
1;
1@
1M
1K
1Q
0R
1S
1V
0G
0C
1H
0-
1B
1,
#430000
1'
0(
0?
1>
1O
0L
0N
1R
1G
0F
1C
0D
0.
1-
#470000
0#
0"
0:
09
0T
0P
0R
0V
0H
0G
0B
0C
0-
0,
#480000
0'
0&
0>
0=
0U
0O
1R
0S
1V
0W
0Z
0V
1H
1G
1B
1C
0H
0I
1-
1,
0B
0A
0,
0+
#520000
0)
0!
0@
08
0X
0M
1N
0Q
1Z
0[
0R
0J
1I
1F
0E
1A
1D
0G
0*
1.
1+
0C
0-
#530000
1'
1&
1>
1=
1U
1O
1R
1V
1H
1G
1B
1C
1-
1,
#570000
1!
0$
0;
18
1X
0K
0N
0Z
1[
1J
0I
0F
1E
0A
0D
1*
0.
0+
#580000
0'
0&
0>
0=
0U
0O
0R
0V
0H
0G
0B
0C
0-
0,
#620000
0!
1)
1#
1:
08
1@
1M
0X
1P
1R
1Z
0[
1N
1F
0J
1I
1G
1D
0E
1A
1C
1.
1-
1+
0*
#630000
1'
1>
1O
0R
1S
1V
0G
0C
1H
0-
1B
1,
#680000
0'
1&
0%
0>
1=
0<
0Y
1U
0O
1R
0S
0V
1W
0Z
1Z
1V
0W
0Z
0I
0H
1G
0A
0B
1C
1H
1I
1-
0,
0+
1B
1A
0I
1,
1+
0A
0+
#720000
1!
0#
1$
1"
1;
0:
19
18
1X
1T
0P
1K
0N
1Q
0R
0V
1W
1Z
0Z
1[
1R
1I
0H
0G
0F
1A
0B
0C
0D
1G
1J
0I
0.
0-
0,
1+
1C
1E
0A
1-
0+
1*
#730000
0&
1(
1?
0=
0U
1L
1N
1V
0W
1Z
0[
1H
1F
1B
1D
0J
1I
1.
1,
0E
1A
0*
1+
#770000
0$
0;
0K
0N
0F
0D
0.
#780000
0(
1'
1%
0?
1>
1<
1Y
1O
0L
1N
0Q
0R
1S
0Z
1[
0V
1W
1R
0S
1V
0W
1Z
1J
0I
0G
1F
0Z
1E
0A
0C
1D
1G
0H
1*
1.
0-
0+
1C
0B
1I
1H
1-
0,
1A
1B
0I
1,
1+
0A
0+
#820000
1$
1#
0"
1;
1:
09
0T
1P
1K
0N
1Q
0R
1S
0V
1V
1R
0H
0G
0F
0B
0C
0D
1G
1H
0.
0-
0,
1C
1B
1-
1,
#830000
0'
0%
1&
0>
1=
0<
0Y
1U
0O
0R
0V
1W
1Z
0[
0Z
1[
0J
1I
0H
0G
0E
1A
0B
0C
1J
0I
0*
0-
0,
1+
1E
0A
1*
0+
#870000
1"
19
1T
1V
1H
1B
1,
#880000
1'
1%
0&
1(
1?
1>
0=
1<
1Y
0U
1O
1L
1N
1R
0V
1Z
1I
0H
1G
1F
1A
0B
1C
1D
1.
1-
0,
1+
#920000
0#
0!
0)
0:
08
0@
0M
0X
0P
0R
0Z
0N
0F
0I
0G
0D
0A
0C
0.
0-
0+
#930000
0'
0%
0>
0<
0Y
0O
1R
0S
1Z
0[
1V
0W
0Z
0J
1I
1G
0E
1A
1C
1H
0*
1-
1+
1B
0I
1,
0A
0+
#970000
0"
0$
0;
09
0T
0K
1N
0Q
0V
0R
0H
1F
0B
1D
0G
1.
0,
0C
0-
