Praticas/P5/Parte3/simulation/qsim/TimerN_Demo.msim.vcd
$comment
	File created using the following command:
		vcd file TimerN_Demo.msim.vcd -direction
$end
$date
	Tue Mar 14 17:40:15 2023
$end
$version
	ModelSim Version 2020.1
$end
$timescale
	1ps
$end

$scope module timern_vhd_vec_tst $end
$var wire 1 ! clk $end
$var wire 1 " enable $end
$var wire 1 # reset $end
$var wire 1 $ start $end
$var wire 1 % timerOut $end

$scope module i1 $end
$var wire 1 & gnd $end
$var wire 1 ' vcc $end
$var wire 1 ( unknown $end
$var wire 1 ) devoe $end
$var wire 1 * devclrn $end
$var wire 1 + devpor $end
$var wire 1 , ww_devoe $end
$var wire 1 - ww_devclrn $end
$var wire 1 . ww_devpor $end
$var wire 1 / ww_clk $end
$var wire 1 0 ww_enable $end
$var wire 1 1 ww_reset $end
$var wire 1 2 ww_start $end
$var wire 1 3 ww_timerOut $end
$var wire 1 4 \timerOut~output_o\ $end
$var wire 1 5 \clk~input_o\ $end
$var wire 1 6 \enable~input_o\ $end
$var wire 1 7 \start~input_o\ $end
$var wire 1 8 \s_count[0]~33_combout\ $end
$var wire 1 9 \reset~input_o\ $end
$var wire 1 : \s_count[0]~37_combout\ $end
$var wire 1 ; \s_count[1]~36\ $end
$var wire 1 < \s_count[2]~39_combout\ $end
$var wire 1 = \s_count[2]~40\ $end
$var wire 1 > \s_count[3]~41_combout\ $end
$var wire 1 ? \s_count[3]~42\ $end
$var wire 1 @ \s_count[4]~43_combout\ $end
$var wire 1 A \s_count[4]~44\ $end
$var wire 1 B \s_count[5]~45_combout\ $end
$var wire 1 C \Equal0~0_combout\ $end
$var wire 1 D \s_count[5]~46\ $end
$var wire 1 E \s_count[6]~47_combout\ $end
$var wire 1 F \s_count[6]~48\ $end
$var wire 1 G \s_count[7]~49_combout\ $end
$var wire 1 H \s_count[7]~50\ $end
$var wire 1 I \s_count[8]~51_combout\ $end
$var wire 1 J \s_count[8]~52\ $end
$var wire 1 K \s_count[9]~53_combout\ $end
$var wire 1 L \Equal0~1_combout\ $end
$var wire 1 M \s_count[9]~54\ $end
$var wire 1 N \s_count[10]~55_combout\ $end
$var wire 1 O \s_count[10]~56\ $end
$var wire 1 P \s_count[11]~57_combout\ $end
$var wire 1 Q \s_count[11]~58\ $end
$var wire 1 R \s_count[12]~59_combout\ $end
$var wire 1 S \s_count[12]~60\ $end
$var wire 1 T \s_count[13]~61_combout\ $end
$var wire 1 U \Equal0~2_combout\ $end
$var wire 1 V \s_count[13]~62\ $end
$var wire 1 W \s_count[14]~63_combout\ $end
$var wire 1 X \s_count[14]~64\ $end
$var wire 1 Y \s_count[15]~65_combout\ $end
$var wire 1 Z \s_count[15]~66\ $end
$var wire 1 [ \s_count[16]~67_combout\ $end
$var wire 1 \ \s_count[16]~68\ $end
$var wire 1 ] \s_count[17]~69_combout\ $end
$var wire 1 ^ \Equal0~3_combout\ $end
$var wire 1 _ \Equal0~4_combout\ $end
$var wire 1 ` \s_count[17]~70\ $end
$var wire 1 a \s_count[18]~71_combout\ $end
$var wire 1 b \s_count[18]~72\ $end
$var wire 1 c \s_count[19]~73_combout\ $end
$var wire 1 d \s_count[19]~74\ $end
$var wire 1 e \s_count[20]~75_combout\ $end
$var wire 1 f \s_count[20]~76\ $end
$var wire 1 g \s_count[21]~77_combout\ $end
$var wire 1 h \Equal0~5_combout\ $end
$var wire 1 i \s_count[21]~78\ $end
$var wire 1 j \s_count[22]~79_combout\ $end
$var wire 1 k \s_count[22]~80\ $end
$var wire 1 l \s_count[23]~81_combout\ $end
$var wire 1 m \s_count[23]~82\ $end
$var wire 1 n \s_count[24]~83_combout\ $end
$var wire 1 o \s_count[24]~84\ $end
$var wire 1 p \s_count[25]~85_combout\ $end
$var wire 1 q \Equal0~6_combout\ $end
$var wire 1 r \s_count[25]~86\ $end
$var wire 1 s \s_count[26]~87_combout\ $end
$var wire 1 t \s_count[26]~88\ $end
$var wire 1 u \s_count[27]~89_combout\ $end
$var wire 1 v \s_count[27]~90\ $end
$var wire 1 w \s_count[28]~91_combout\ $end
$var wire 1 x \s_count[28]~92\ $end
$var wire 1 y \s_count[29]~93_combout\ $end
$var wire 1 z \Equal0~7_combout\ $end
$var wire 1 { \s_count[29]~94\ $end
$var wire 1 | \s_count[30]~95_combout\ $end
$var wire 1 } \s_count[30]~96\ $end
$var wire 1 ~ \s_count[31]~97_combout\ $end
$var wire 1 !! \Equal0~8_combout\ $end
$var wire 1 "! \Equal0~9_combout\ $end
$var wire 1 #! \Equal0~10_combout\ $end
$var wire 1 $! \s_count[0]~38_combout\ $end
$var wire 1 %! \s_count[0]~34\ $end
$var wire 1 &! \s_count[1]~35_combout\ $end
$var wire 1 '! \s_count[0]~32_combout\ $end
$var wire 1 (! \timerOut~0_combout\ $end
$var wire 1 )! \timerOut~reg0_q\ $end
$var wire 1 *! s_count [31] $end
$var wire 1 +! s_count [30] $end
$var wire 1 ,! s_count [29] $end
$var wire 1 -! s_count [28] $end
$var wire 1 .! s_count [27] $end
$var wire 1 /! s_count [26] $end
$var wire 1 0! s_count [25] $end
$var wire 1 1! s_count [24] $end
$var wire 1 2! s_count [23] $end
$var wire 1 3! s_count [22] $end
$var wire 1 4! s_count [21] $end
$var wire 1 5! s_count [20] $end
$var wire 1 6! s_count [19] $end
$var wire 1 7! s_count [18] $end
$var wire 1 8! s_count [17] $end
$var wire 1 9! s_count [16] $end
$var wire 1 :! s_count [15] $end
$var wire 1 ;! s_count [14] $end
$var wire 1 <! s_count [13] $end
$var wire 1 =! s_count [12] $end
$var wire 1 >! s_count [11] $end
$var wire 1 ?! s_count [10] $end
$var wire 1 @! s_count [9] $end
$var wire 1 A! s_count [8] $end
$var wire 1 B! s_count [7] $end
$var wire 1 C! s_count [6] $end
$var wire 1 D! s_count [5] $end
$var wire 1 E! s_count [4] $end
$var wire 1 F! s_count [3] $end
$var wire 1 G! s_count [2] $end
$var wire 1 H! s_count [1] $end
$var wire 1 I! s_count [0] $end
$upscope $end
$upscope $end
$enddefinitions $end
#0
$dumpvars
0!
1"
1#
0$
0%
0&
1'
x(
1)
1*
1+
1,
1-
1.
0/
10
11
02
03
04
05
16
07
18
19
1:
1;
0<
0=
0>
1?
0@
0A
0B
1C
1D
0E
0F
0G
1H
0I
0J
0K
1L
1M
0N
0O
0P
1Q
0R
0S
0T
1U
1V
0W
0X
0Y
1Z
0[
0\
0]
1^
1_
1`
0a
0b
0c
1d
0e
0f
0g
1h
1i
0j
0k
0l
1m
0n
0o
0p
1q
1r
0s
0t
0u
1v
0w
0x
0y
1z
1{
0|
0}
0~
1!!
1"!
1#!
1$!
0%!
0&!
0'!
0(!
0)!
0*!
0+!
0,!
0-!
0.!
0/!
00!
01!
02!
03!
04!
05!
06!
07!
08!
09!
0:!
0;!
0<!
0=!
0>!
0?!
0@!
0A!
0B!
0C!
0D!
0E!
0F!
0G!
0H!
0I!
$end
#20000
1!
1/
15
#40000
0!
0/
05
#60000
1!
1/
15
#70000
0#
01
09
0$!
#80000
0!
0/
05
#100000
1!
1/
15
#120000
0!
0/
05
#140000
1!
1/
15
#160000
0!
0/
05
#180000
1!
1/
15
#200000
0!
0/
05
#220000
1!
1/
15
#240000
0!
1$
0/
12
17
05
1$!
1'!
0:
1(!
#260000
1!
1/
15
1I!
1)!
08
1%!
0C
0_
1&!
14
0"!
13
1%
0#!
#280000
0!
0/
05
#300000
1!
1/
15
0I!
1H!
0&!
0;
18
0%!
1C
1_
1&!
1;
1<
0<
1"!
#320000
0!
0$
0/
02
07
05
#340000
1!
1/
15
1I!
08
1%!
0C
0_
0&!
0;
1<
0"!
#360000
0!
0/
05
#380000
1!
1/
15
1G!
0I!
0H!
1&!
1;
18
0%!
1C
0<
1=
1>
1_
0&!
1<
0=
0>
1"!
#400000
0!
0/
05
#420000
1!
1/
15
1I!
08
1%!
0C
0_
1&!
0"!
#440000
0!
0/
05
#460000
1!
0"
1/
00
06
15
0I!
1H!
0$!
0(!
0&!
0;
18
0%!
1C
1_
1&!
1;
0<
1=
1>
1<
0=
1"!
0'!
0>
1:
#480000
0!
0/
05
#500000
1!
1/
15
0)!
04
03
0%
#520000
0!
0/
05
#540000
1!
1/
15
#560000
0!
1"
0/
10
16
05
1$!
#580000
1!
1/
15
0G!
0H!
0&!
0<
1#!
0$!
#600000
0!
1$
0/
12
17
05
1$!
1'!
0:
1(!
#620000
1!
1/
15
1I!
1)!
08
1%!
0C
0_
1&!
14
0"!
13
1%
0#!
#640000
0!
0/
05
#660000
1!
1/
15
0I!
1H!
0&!
0;
18
0%!
1C
1_
1&!
1;
1<
0<
1"!
#680000
0!
0/
05
#700000
1!
1/
15
1I!
08
1%!
0C
0_
0&!
0;
1<
0"!
#720000
0!
0/
05
#740000
1!
1/
15
1G!
0I!
0H!
1&!
1;
18
0%!
1C
0<
1=
1>
1_
0&!
1<
0=
0>
1"!
#760000
0!
0/
05
#780000
1!
1/
15
1I!
08
1%!
0C
0_
1&!
0"!
#800000
0!
0/
05
#820000
1!
1/
15
0I!
1H!
0&!
0;
18
0%!
1C
1_
1&!
1;
0<
1=
1>
1<
0=
1"!
0'!
0>
1:
0(!
#840000
0!
0/
05
#860000
1!
1/
15
0G!
0H!
0)!
0&!
0<
1#!
1'!
0:
1(!
04
03
0%
#880000
0!
0/
05
#900000
1!
1/
15
1I!
1)!
08
1%!
0C
0_
1&!
14
0"!
13
1%
0#!
#920000
0!
0/
05
#940000
1!
1/
15
0I!
1H!
0&!
0;
18
0%!
1C
1_
1&!
1;
1<
0<
1"!
#960000
0!
0/
05
#980000
1!
1/
15
1I!
08
1%!
0C
0_
0&!
0;
1<
0"!
