Praticas/P2/Parte2/simulation/qsim/Mux2_1Demo.msim.vcd
$comment
	File created using the following command:
		vcd file Mux2_1Demo.msim.vcd -direction
$end
$date
	Tue Feb 21 21:54:02 2023
$end
$version
	ModelSim Version 2020.1
$end
$timescale
	1ps
$end

$scope module mux2_1_vhd_vec_tst $end
$var wire 1 ! dataIn0 $end
$var wire 1 " dataIn1 $end
$var wire 1 # dataOut $end
$var wire 1 $ sel $end

$scope module i1 $end
$var wire 1 % gnd $end
$var wire 1 & vcc $end
$var wire 1 ' unknown $end
$var wire 1 ( devoe $end
$var wire 1 ) devclrn $end
$var wire 1 * devpor $end
$var wire 1 + ww_devoe $end
$var wire 1 , ww_devclrn $end
$var wire 1 - ww_devpor $end
$var wire 1 . ww_sel $end
$var wire 1 / ww_dataIn0 $end
$var wire 1 0 ww_dataIn1 $end
$var wire 1 1 ww_dataOut $end
$var wire 1 2 \dataOut~output_o\ $end
$var wire 1 3 \dataIn1~input_o\ $end
$var wire 1 4 \dataIn0~input_o\ $end
$var wire 1 5 \sel~input_o\ $end
$var wire 1 6 \dataOut~0_combout\ $end
$upscope $end
$upscope $end
$enddefinitions $end
#0
$dumpvars
0!
0"
0#
0$
0%
1&
x'
1(
1)
1*
1+
1,
1-
0.
0/
00
01
02
03
04
05
06
$end
#50000
1!
1/
14
16
12
11
1#
#100000
0!
1"
0/
10
13
04
06
02
01
0#
#150000
1!
1/
14
16
12
11
1#
#200000
0!
0"
1$
0/
00
1.
15
03
04
06
02
01
0#
#250000
1!
1/
14
#300000
0!
1"
0/
10
13
04
16
12
11
1#
#350000
1!
1/
14
#400000
0!
0"
0$
0/
00
0.
05
03
04
06
02
01
0#
#450000
1!
1/
14
16
12
11
1#
#500000
0!
1"
0/
10
13
04
06
02
01
0#
#550000
1!
1/
14
16
12
11
1#
#600000
0!
0"
1$
0/
00
1.
15
03
04
06
02
01
0#
#650000
1!
1/
14
#700000
0!
1"
0/
10
13
04
16
12
11
1#
#750000
1!
1/
14
#800000
0!
0"
0$
0/
00
0.
05
03
04
06
02
01
0#
#850000
1!
1/
14
16
12
11
1#
#900000
0!
1"
0/
10
13
04
06
02
01
0#
#950000
1!
1/
14
16
12
11
1#
