Praticas/P6/Parte2/simulation/qsim/SeqShiftUnit_Demo.msim.vcd
$comment
	File created using the following command:
		vcd file SeqShiftUnit_Demo.msim.vcd -direction
$end
$date
	Fri Mar 17 23:31:38 2023
$end
$version
	ModelSim Version 2020.1
$end
$timescale
	1ps
$end

$scope module seqshiftunit_vhd_vec_tst $end
$var wire 1 ! clk $end
$var wire 1 " dataIn [7] $end
$var wire 1 # dataIn [6] $end
$var wire 1 $ dataIn [5] $end
$var wire 1 % dataIn [4] $end
$var wire 1 & dataIn [3] $end
$var wire 1 ' dataIn [2] $end
$var wire 1 ( dataIn [1] $end
$var wire 1 ) dataIn [0] $end
$var wire 1 * dataOut [7] $end
$var wire 1 + dataOut [6] $end
$var wire 1 , dataOut [5] $end
$var wire 1 - dataOut [4] $end
$var wire 1 . dataOut [3] $end
$var wire 1 / dataOut [2] $end
$var wire 1 0 dataOut [1] $end
$var wire 1 1 dataOut [0] $end
$var wire 1 2 dirLeft $end
$var wire 1 3 loadEn $end
$var wire 1 4 rotate $end
$var wire 1 5 shArith $end
$var wire 1 6 siLeft $end
$var wire 1 7 siRight $end

$scope module i1 $end
$var wire 1 8 gnd $end
$var wire 1 9 vcc $end
$var wire 1 : unknown $end
$var wire 1 ; devoe $end
$var wire 1 < devclrn $end
$var wire 1 = devpor $end
$var wire 1 > ww_devoe $end
$var wire 1 ? ww_devclrn $end
$var wire 1 @ ww_devpor $end
$var wire 1 A ww_clk $end
$var wire 1 B ww_dataIn [7] $end
$var wire 1 C ww_dataIn [6] $end
$var wire 1 D ww_dataIn [5] $end
$var wire 1 E ww_dataIn [4] $end
$var wire 1 F ww_dataIn [3] $end
$var wire 1 G ww_dataIn [2] $end
$var wire 1 H ww_dataIn [1] $end
$var wire 1 I ww_dataIn [0] $end
$var wire 1 J ww_siLeft $end
$var wire 1 K ww_siRight $end
$var wire 1 L ww_loadEn $end
$var wire 1 M ww_rotate $end
$var wire 1 N ww_dirLeft $end
$var wire 1 O ww_shArith $end
$var wire 1 P ww_dataOut [7] $end
$var wire 1 Q ww_dataOut [6] $end
$var wire 1 R ww_dataOut [5] $end
$var wire 1 S ww_dataOut [4] $end
$var wire 1 T ww_dataOut [3] $end
$var wire 1 U ww_dataOut [2] $end
$var wire 1 V ww_dataOut [1] $end
$var wire 1 W ww_dataOut [0] $end
$var wire 1 X \dataOut[0]~output_o\ $end
$var wire 1 Y \dataOut[1]~output_o\ $end
$var wire 1 Z \dataOut[2]~output_o\ $end
$var wire 1 [ \dataOut[3]~output_o\ $end
$var wire 1 \ \dataOut[4]~output_o\ $end
$var wire 1 ] \dataOut[5]~output_o\ $end
$var wire 1 ^ \dataOut[6]~output_o\ $end
$var wire 1 _ \dataOut[7]~output_o\ $end
$var wire 1 ` \clk~input_o\ $end
$var wire 1 a \dirLeft~input_o\ $end
$var wire 1 b \rotate~input_o\ $end
$var wire 1 c \siLeft~input_o\ $end
$var wire 1 d \shArith~input_o\ $end
$var wire 1 e \s_shiftReg[7]~9_combout\ $end
$var wire 1 f \s_shiftReg[7]~10_combout\ $end
$var wire 1 g \s_shiftReg[7]~7_combout\ $end
$var wire 1 h \dataIn[7]~input_o\ $end
$var wire 1 i \loadEn~input_o\ $end
$var wire 1 j \s_shiftReg[6]~6_combout\ $end
$var wire 1 k \dataIn[6]~input_o\ $end
$var wire 1 l \s_shiftReg[5]~5_combout\ $end
$var wire 1 m \dataIn[5]~input_o\ $end
$var wire 1 n \s_shiftReg[4]~4_combout\ $end
$var wire 1 o \dataIn[4]~input_o\ $end
$var wire 1 p \s_shiftReg[3]~3_combout\ $end
$var wire 1 q \dataIn[3]~input_o\ $end
$var wire 1 r \s_shiftReg[2]~2_combout\ $end
$var wire 1 s \dataIn[2]~input_o\ $end
$var wire 1 t \s_shiftReg[1]~1_combout\ $end
$var wire 1 u \dataIn[1]~input_o\ $end
$var wire 1 v \siRight~input_o\ $end
$var wire 1 w \s_shiftReg~8_combout\ $end
$var wire 1 x \s_shiftReg[0]~0_combout\ $end
$var wire 1 y \dataIn[0]~input_o\ $end
$var wire 1 z s_shiftReg [7] $end
$var wire 1 { s_shiftReg [6] $end
$var wire 1 | s_shiftReg [5] $end
$var wire 1 } s_shiftReg [4] $end
$var wire 1 ~ s_shiftReg [3] $end
$var wire 1 !! s_shiftReg [2] $end
$var wire 1 "! s_shiftReg [1] $end
$var wire 1 #! s_shiftReg [0] $end
$upscope $end
$upscope $end
$enddefinitions $end
#0
$dumpvars
0!
02
13
04
05
06
07
08
19
x:
1;
1<
1=
1>
1?
1@
0A
0J
0K
1L
0M
0N
0O
0X
0Y
0Z
0[
0\
0]
0^
0_
0`
0a
0b
0c
0d
0e
1f
0g
0h
1i
0j
1k
0l
1m
0n
0o
0p
0q
0r
1s
0t
0u
0v
0w
0x
0y
0"
1#
1$
0%
0&
1'
0(
0)
0B
1C
1D
0E
0F
1G
0H
0I
0P
0Q
0R
0S
0T
0U
0V
0W
0z
0{
0|
0}
0~
0!!
0"!
0#!
0*
0+
0,
0-
0.
0/
00
01
$end
#5000
1!
1A
1`
1{
1|
1!!
1t
1n
1l
1Z
1]
1^
1U
1R
1Q
1/
1,
1+
#10000
0!
0A
0`
#15000
1!
1A
1`
#20000
0!
0A
0`
#25000
1!
1A
1`
#30000
0!
0A
0`
#35000
1!
1A
1`
#40000
0!
0A
0`
#45000
1!
1A
1`
#50000
0!
0A
0`
#55000
1!
1A
1`
#60000
0!
0A
0`
#65000
1!
1A
1`
#70000
0!
14
03
0#
0$
0'
0A
1M
0L
0G
0D
0C
0k
0m
0s
0i
1b
0`
1e
0f
#75000
1!
1A
1`
0{
1}
0!!
1"!
1x
0t
1p
0l
1Y
0Z
1\
0^
1V
0U
1S
0Q
10
0/
1-
0+
#80000
0!
0A
0`
#85000
1!
1A
1`
0|
1~
0"!
1#!
1f
0x
1r
0n
1g
1X
0Y
1[
0]
1W
0V
1T
0R
11
00
1.
0,
#90000
0!
0A
0`
#95000
1!
1A
1`
1z
0}
1!!
0#!
0f
1t
0p
1j
1w
0g
0X
1Z
0\
1_
0W
1U
0S
1P
01
1/
0-
1*
#100000
0!
0A
0`
#105000
1!
1A
1`
0z
1{
0~
1"!
1x
0r
1l
0j
0w
1Y
0[
1^
0_
1V
0T
1Q
0P
10
0.
1+
0*
#110000
0!
0A
0`
#115000
1!
1A
1`
0{
1|
0!!
1#!
1f
0t
1n
0l
1g
1X
0Z
1]
0^
1W
0U
1R
0Q
11
0/
1,
0+
#120000
0!
0A
0`
#125000
1!
1A
1`
1z
0|
1}
0"!
0x
1p
0n
1j
1w
0Y
1\
0]
1_
0V
1S
0R
1P
00
1-
0,
1*
#130000
0!
12
0A
1N
1a
0`
0g
0j
1l
0p
1t
1x
#135000
1!
1A
1`
0z
1|
0}
1"!
1r
0l
1j
0w
0x
1Y
0\
1]
0_
1V
0S
1R
0P
10
0-
1,
0*
#140000
0!
0A
0`
#145000
1!
1A
1`
1{
0|
1!!
0#!
0f
1p
0t
0j
1g
0X
1Z
0]
1^
0W
1U
0R
1Q
01
1/
0,
1+
#150000
0!
0A
0`
#155000
1!
1A
1`
1z
0{
1~
0"!
1n
0r
0g
1w
1x
0Y
1[
0^
1_
0V
1T
0Q
1P
00
1.
0+
1*
#160000
0!
04
0A
0M
0b
0`
0e
1f
0w
0x
#165000
1!
1A
1`
0z
1}
0!!
1l
0p
0Z
1\
0_
0U
1S
0P
0/
1-
0*
#170000
0!
0A
0`
#175000
1!
1A
1`
1|
0~
1j
0n
0[
1]
0T
1R
0.
1,
#180000
0!
0A
0`
#185000
1!
1A
1`
1{
0}
1g
0l
0\
1^
0S
1Q
0-
1+
#190000
0!
0A
0`
#195000
1!
1A
1`
1z
0|
0j
0]
1_
0R
1P
0,
1*
#200000
0!
15
0A
1O
1d
0`
1e
#205000
1!
1A
1`
0{
0g
0^
0Q
0+
#210000
0!
0A
0`
#215000
1!
1A
1`
0z
0e
0_
0P
0*
#220000
0!
0A
0`
#225000
1!
1A
1`
#230000
0!
0A
0`
#235000
1!
1A
1`
#240000
0!
0A
0`
#245000
1!
1A
1`
#250000
0!
0A
0`
#255000
1!
1A
1`
#260000
0!
0A
0`
#265000
1!
1A
1`
#270000
0!
0A
0`
#275000
1!
1A
1`
#280000
0!
02
0A
0N
0a
0`
#285000
1!
1A
1`
#290000
0!
0A
0`
#295000
1!
1A
1`
#300000
0!
05
0A
0O
0d
0`
#305000
1!
1A
1`
#310000
0!
0A
0`
#315000
1!
1A
1`
#320000
0!
0A
0`
#325000
1!
1A
1`
#330000
0!
0A
0`
#335000
1!
1A
1`
#340000
0!
0A
0`
#345000
1!
1A
1`
#350000
0!
13
1"
1&
1(
0A
1L
1H
1F
1B
1h
1q
1u
1i
0`
#355000
1!
1A
1`
1z
1~
1"!
1x
1r
1j
1Y
1[
1_
1V
1T
1P
10
1.
1*
#360000
0!
0A
0`
#365000
1!
1A
1`
#370000
0!
0A
0`
#375000
1!
1A
1`
#380000
0!
0A
0`
#385000
1!
1A
1`
#390000
0!
16
0A
1J
1c
0`
1e
1g
#395000
1!
1A
1`
#400000
0!
0A
0`
#405000
1!
1A
1`
#410000
0!
0A
0`
#415000
1!
1A
1`
#420000
0!
03
0"
0&
0(
0A
0L
0H
0F
0B
0h
0q
0u
0i
0`
#425000
1!
1A
1`
1{
0~
1!!
0"!
1#!
0x
1t
0r
1l
1X
0Y
1Z
0[
1^
1W
0V
1U
0T
1Q
11
00
1/
0.
1+
#430000
0!
0A
0`
#435000
1!
1A
1`
1|
0!!
1"!
0#!
1x
0t
1n
0X
1Y
0Z
1]
0W
1V
0U
1R
01
10
0/
1,
#440000
0!
0A
0`
#445000
1!
1A
1`
1}
0"!
1#!
0x
1p
1X
0Y
1\
1W
0V
1S
11
00
1-
#450000
0!
0A
0`
#455000
1!
1A
1`
1~
0#!
1r
0X
1[
0W
1T
01
1.
#460000
0!
0A
0`
#465000
1!
1A
1`
1!!
1t
1Z
1U
1/
#470000
0!
0A
0`
#475000
1!
1A
1`
1"!
1x
1Y
1V
10
#480000
0!
0A
0`
#485000
1!
1A
1`
1#!
1X
1W
11
#490000
0!
0A
0`
#495000
1!
1A
1`
#500000
0!
0A
0`
#505000
1!
1A
1`
#510000
0!
0A
0`
#515000
1!
1A
1`
#520000
0!
0A
0`
#525000
1!
1A
1`
#530000
0!
0A
0`
#535000
1!
1A
1`
#540000
0!
0A
0`
#545000
1!
1A
1`
#550000
0!
0A
0`
#555000
1!
1A
1`
#560000
0!
0A
0`
#565000
1!
1A
1`
#570000
0!
06
0A
0J
0c
0`
0e
0g
#575000
1!
1A
1`
0z
0j
0_
0P
0*
#580000
0!
0A
0`
#585000
1!
1A
1`
0{
0l
0^
0Q
0+
#590000
0!
0A
0`
#595000
1!
1A
1`
0|
0n
0]
0R
0,
#600000
0!
0A
0`
#605000
1!
1A
1`
0}
0p
0\
0S
0-
#610000
0!
0A
0`
#615000
1!
1A
1`
0~
0r
0[
0T
0.
#620000
0!
0A
0`
#625000
1!
1A
1`
0!!
0t
0Z
0U
0/
#630000
0!
0A
0`
#635000
1!
1A
1`
0"!
0x
0Y
0V
00
#640000
0!
0A
0`
#645000
1!
1A
1`
0#!
0X
0W
01
#650000
0!
0A
0`
#655000
1!
1A
1`
#660000
0!
0A
0`
#665000
1!
1A
1`
#670000
0!
0A
0`
#675000
1!
1A
1`
#680000
0!
0A
0`
#685000
1!
1A
1`
#690000
0!
0A
0`
#695000
1!
1A
1`
#700000
0!
0A
0`
#705000
1!
1A
1`
#710000
0!
0A
0`
#715000
1!
1A
1`
#720000
0!
0A
0`
#725000
1!
1A
1`
#730000
0!
0A
0`
#735000
1!
1A
1`
#740000
0!
0A
0`
#745000
1!
1A
1`
#750000
0!
0A
0`
#755000
1!
1A
1`
#760000
0!
0A
0`
#765000
1!
1A
1`
#770000
0!
0A
0`
#775000
1!
1A
1`
#780000
0!
0A
0`
#785000
1!
1A
1`
#790000
0!
17
0A
1K
1v
0`
1w
#795000
1!
1A
1`
#800000
0!
0A
0`
#805000
1!
1A
1`
#810000
0!
0A
0`
#815000
1!
1A
1`
#820000
0!
0A
0`
#825000
1!
1A
1`
#830000
0!
0A
0`
#835000
1!
1A
1`
#840000
0!
0A
0`
#845000
1!
1A
1`
#850000
0!
0A
0`
#855000
1!
1A
1`
#860000
0!
0A
0`
#865000
1!
1A
1`
#870000
0!
0A
0`
#875000
1!
1A
1`
#880000
0!
0A
0`
#885000
1!
1A
1`
#890000
0!
0A
0`
#895000
1!
1A
1`
#900000
0!
0A
0`
#905000
1!
1A
1`
#910000
0!
0A
0`
#915000
1!
1A
1`
#920000
0!
0A
0`
#925000
1!
1A
1`
#930000
0!
07
0A
0K
0v
0`
0w
#935000
1!
1A
1`
#940000
0!
0A
0`
#945000
1!
1A
1`
#950000
0!
0A
0`
#955000
1!
1A
1`
#960000
0!
0A
0`
#965000
1!
1A
1`
#970000
0!
0A
0`
#975000
1!
1A
1`
#980000
0!
0A
0`
#985000
1!
1A
1`
#990000
0!
0A
0`
#995000
1!
1A
1`
