Praticas/P6/Parte1/simulation/qsim/ShiftRegister_Demo.msim.vcd
$comment
	File created using the following command:
		vcd file ShiftRegister_Demo.msim.vcd -direction
$end
$date
	Fri Mar 17 22:36:00 2023
$end
$version
	ModelSim Version 2020.1
$end
$timescale
	1ps
$end

$scope module shiftregister4_vhd_vec_tst $end
$var wire 1 ! clk $end
$var wire 1 " dataOut [3] $end
$var wire 1 # dataOut [2] $end
$var wire 1 $ dataOut [1] $end
$var wire 1 % dataOut [0] $end
$var wire 1 & sin $end

$scope module i1 $end
$var wire 1 ' gnd $end
$var wire 1 ( vcc $end
$var wire 1 ) unknown $end
$var wire 1 * devoe $end
$var wire 1 + devclrn $end
$var wire 1 , devpor $end
$var wire 1 - ww_devoe $end
$var wire 1 . ww_devclrn $end
$var wire 1 / ww_devpor $end
$var wire 1 0 ww_clk $end
$var wire 1 1 ww_sin $end
$var wire 1 2 ww_dataOut [3] $end
$var wire 1 3 ww_dataOut [2] $end
$var wire 1 4 ww_dataOut [1] $end
$var wire 1 5 ww_dataOut [0] $end
$var wire 1 6 \dataOut[0]~output_o\ $end
$var wire 1 7 \dataOut[1]~output_o\ $end
$var wire 1 8 \dataOut[2]~output_o\ $end
$var wire 1 9 \dataOut[3]~output_o\ $end
$var wire 1 : \clk~input_o\ $end
$var wire 1 ; \sin~input_o\ $end
$var wire 1 < s_reg [3] $end
$var wire 1 = s_reg [2] $end
$var wire 1 > s_reg [1] $end
$var wire 1 ? s_reg [0] $end
$upscope $end
$upscope $end
$enddefinitions $end
#0
$dumpvars
0!
0&
0'
1(
x)
1*
1+
1,
1-
1.
1/
00
01
06
07
08
09
0:
0;
02
03
04
05
0<
0=
0>
0?
0"
0#
0$
0%
$end
#12500
1!
10
1:
#25000
0!
00
0:
#37500
1!
10
1:
#50000
0!
00
0:
#62500
1!
10
1:
#75000
0!
00
0:
#87500
1!
10
1:
#100000
0!
1&
00
11
1;
0:
#112500
1!
10
1:
1?
16
15
1%
#125000
0!
00
0:
#137500
1!
10
1:
1>
17
14
1$
#150000
0!
00
0:
#162500
1!
10
1:
1=
18
13
1#
#175000
0!
00
0:
#187500
1!
10
1:
1<
19
12
1"
#200000
0!
0&
00
01
0;
0:
#212500
1!
10
1:
0?
06
05
0%
#225000
0!
00
0:
#237500
1!
10
1:
0>
07
04
0$
#250000
0!
00
0:
#262500
1!
10
1:
0=
08
03
0#
#275000
0!
00
0:
#287500
1!
10
1:
0<
09
02
0"
#300000
0!
00
0:
#312500
1!
10
1:
#325000
0!
00
0:
#337500
1!
10
1:
#350000
0!
00
0:
#362500
1!
10
1:
#375000
0!
00
0:
#387500
1!
10
1:
#400000
0!
1&
00
11
1;
0:
#412500
1!
10
1:
1?
16
15
1%
#425000
0!
00
0:
#437500
1!
10
1:
1>
17
14
1$
#450000
0!
0&
00
01
0;
0:
#462500
1!
10
1:
0?
1=
18
06
13
05
0%
1#
#475000
0!
00
0:
#487500
1!
10
1:
0>
1<
19
07
12
04
0$
1"
#500000
0!
1&
00
11
1;
0:
#512500
1!
10
1:
1?
0=
08
16
03
15
1%
0#
#525000
0!
00
0:
#537500
1!
10
1:
1>
0<
09
17
02
14
1$
0"
#550000
0!
0&
00
01
0;
0:
#562500
1!
10
1:
0?
1=
18
06
13
05
0%
1#
#575000
0!
00
0:
#587500
1!
10
1:
0>
1<
19
07
12
04
0$
1"
#600000
0!
00
0:
#612500
1!
10
1:
0=
08
03
0#
#625000
0!
00
0:
#637500
1!
10
1:
0<
09
02
0"
#650000
0!
00
0:
#662500
1!
10
1:
#675000
0!
00
0:
#687500
1!
10
1:
#700000
0!
1&
00
11
1;
0:
#712500
1!
10
1:
1?
16
15
1%
#725000
0!
00
0:
#737500
1!
10
1:
1>
17
14
1$
#750000
0!
00
0:
#762500
1!
10
1:
1=
18
13
1#
#775000
0!
00
0:
#787500
1!
10
1:
1<
19
12
1"
#800000
0!
00
0:
#812500
1!
10
1:
#825000
0!
00
0:
#837500
1!
10
1:
#850000
0!
0&
00
01
0;
0:
#862500
1!
10
1:
0?
06
05
0%
#875000
0!
00
0:
#887500
1!
10
1:
0>
07
04
0$
#900000
0!
00
0:
#912500
1!
10
1:
0=
08
03
0#
#925000
0!
00
0:
#937500
1!
10
1:
0<
09
02
0"
#950000
0!
1&
00
11
1;
0:
#962500
1!
10
1:
1?
16
15
1%
#975000
0!
00
0:
#987500
1!
10
1:
1>
17
14
1$
