Praticas/P8/Parte3/simulation/qsim/DrinksMachineV2.msim.vcd
$comment
	File created using the following command:
		vcd file DrinksMachineV2.msim.vcd -direction
$end
$date
	Thu Apr 06 12:53:18 2023
$end
$version
	ModelSim Version 2020.1
$end
$timescale
	1ps
$end

$scope module drinksfsm_vhd_vec_tst $end
$var wire 1 ! abrir $end
$var wire 1 " C $end
$var wire 1 # clock $end
$var wire 1 $ reset $end
$var wire 1 % V $end

$scope module i1 $end
$var wire 1 & gnd $end
$var wire 1 ' vcc $end
$var wire 1 ( unknown $end
$var wire 1 ) devoe $end
$var wire 1 * devclrn $end
$var wire 1 + devpor $end
$var wire 1 , ww_devoe $end
$var wire 1 - ww_devclrn $end
$var wire 1 . ww_devpor $end
$var wire 1 / ww_clock $end
$var wire 1 0 ww_reset $end
$var wire 1 1 ww_V $end
$var wire 1 2 ww_C $end
$var wire 1 3 ww_abrir $end
$var wire 1 4 \abrir~output_o\ $end
$var wire 1 5 \clock~input_o\ $end
$var wire 1 6 \reset~input_o\ $end
$var wire 1 7 \C~input_o\ $end
$var wire 1 8 \reg_fstate.E4~2_combout\ $end
$var wire 1 9 \V~input_o\ $end
$var wire 1 : \reg_fstate.E0~0_combout\ $end
$var wire 1 ; \reg_fstate.E0~1_combout\ $end
$var wire 1 < \fstate.E0~q\ $end
$var wire 1 = \reg_fstate.E1~0_combout\ $end
$var wire 1 > \fstate.E1~q\ $end
$var wire 1 ? \reg_fstate.E2~0_combout\ $end
$var wire 1 @ \fstate.E2~q\ $end
$var wire 1 A \reg_fstate.E3~2_combout\ $end
$var wire 1 B \reg_fstate.E3~3_combout\ $end
$var wire 1 C \fstate.E3~q\ $end
$var wire 1 D \reg_fstate.E4~3_combout\ $end
$var wire 1 E \reg_fstate.E4~4_combout\ $end
$var wire 1 F \fstate.E4~q\ $end
$var wire 1 G \reg_fstate.E5~0_combout\ $end
$var wire 1 H \reg_fstate.E5~1_combout\ $end
$var wire 1 I \fstate.E5~q\ $end
$var wire 1 J \abrir~0_combout\ $end
$upscope $end
$upscope $end
$enddefinitions $end
#0
$dumpvars
0!
0"
0#
1$
0%
0&
1'
x(
1)
1*
1+
1,
1-
1.
0/
10
01
02
03
04
05
16
07
08
09
1:
0;
0<
0=
0>
0?
0@
0A
0B
0C
0D
0E
0F
0G
0H
0I
0J
$end
#12500
1#
1/
15
#25000
0#
0/
05
#37500
1#
1/
15
#50000
0#
0$
1"
0/
00
12
17
06
05
0:
1B
1G
1;
#62500
1#
1/
15
1<
1C
1A
1H
0B
#75000
0#
0/
05
#87500
1#
1/
15
0C
1I
0;
1J
0A
0H
14
13
1!
#100000
0#
0/
05
#112500
1#
1/
15
0<
0I
1;
0J
1B
04
03
0!
#125000
0#
0/
05
#137500
1#
1/
15
1<
1C
1A
1H
0B
#150000
0#
0/
05
#162500
1#
1/
15
0C
1I
0;
1J
0A
0H
14
13
1!
#175000
0#
0/
05
#187500
1#
1/
15
0<
0I
1;
0J
1B
04
03
0!
#200000
0#
0/
05
#212500
1#
1/
15
1<
1C
1A
1H
0B
#225000
0#
0/
05
#237500
1#
1/
15
0C
1I
0;
1J
0A
0H
14
13
1!
#250000
0#
0"
0/
02
07
05
18
0G
#262500
1#
1/
15
0<
0I
1;
0J
1:
0;
04
03
0!
#275000
0#
0/
05
#287500
1#
1/
15
#300000
0#
0/
05
#310000
1%
11
19
0:
1=
1;
#312500
1#
1/
15
1<
1>
1?
0=
#325000
0#
0/
05
#337500
1#
1/
15
0>
1@
1A
0?
1B
#350000
0#
0/
05
#362500
1#
1/
15
0@
1C
1D
0A
0B
1E
#375000
0#
0/
05
#387500
1#
1/
15
0C
1F
1G
0D
0E
1H
#400000
0#
0/
05
#412500
1#
1/
15
0F
1I
0;
1J
0G
0H
14
13
1!
#420000
0%
1"
01
12
17
09
08
1G
#425000
0#
0/
05
#437500
1#
1/
15
0<
0I
1;
0J
1B
04
03
0!
#450000
0#
1%
0"
0/
11
02
07
19
05
18
0B
0G
1=
#462500
1#
1/
15
1<
1>
1?
0=
#475000
0#
0/
05
#487500
1#
1/
15
0>
1@
1A
0?
1B
#500000
0#
0/
05
#512500
1#
1/
15
0@
1C
1D
0A
0B
1E
#525000
0#
0/
05
#537500
1#
1/
15
0C
1F
1G
0D
0E
1H
#550000
0#
0/
05
#562500
1#
1/
15
0F
1I
0;
1J
0G
0H
14
13
1!
#575000
0#
0/
05
#587500
1#
1/
15
0<
0I
1;
0J
1=
04
03
0!
#600000
0#
0/
05
#612500
1#
1/
15
1<
1>
1?
0=
#625000
0#
0/
05
#630000
0%
01
09
1=
0?
#637500
1#
1/
15
#650000
0#
0/
05
#662500
1#
1/
15
#675000
0#
0/
05
#687500
1#
1/
15
#700000
0#
0/
05
#712500
1#
1/
15
#725000
0#
0/
05
#737500
1#
1/
15
#750000
0#
0/
05
#762500
1#
1/
15
#775000
0#
0/
05
#787500
1#
1/
15
#800000
0#
0/
05
#812500
1#
1/
15
#825000
0#
0/
05
#837500
1#
1/
15
#850000
0#
0/
05
#862500
1#
1/
15
#875000
0#
0/
05
#887500
1#
1/
15
#900000
0#
0/
05
#912500
1#
1/
15
#925000
0#
0/
05
#937500
1#
1/
15
#950000
0#
0/
05
#962500
1#
1/
15
#975000
0#
0/
05
#987500
1#
1/
15
