lsd_support/Main/simulation/qsim/Teste.msim.vcd
$comment
	File created using the following command:
		vcd file Teste.msim.vcd -direction
$end
$date
	Mon May 22 22:31:52 2023
$end
$version
	ModelSim Version 2020.1
$end
$timescale
	1ps
$end

$scope module xpto_vhd_vec_tst $end
$var wire 1 ! clk $end
$var wire 1 " dataIn [3] $end
$var wire 1 # dataIn [2] $end
$var wire 1 $ dataIn [1] $end
$var wire 1 % dataIn [0] $end
$var wire 1 & dataOut [3] $end
$var wire 1 ' dataOut [2] $end
$var wire 1 ( dataOut [1] $end
$var wire 1 ) dataOut [0] $end
$var wire 1 * load $end
$var wire 1 + reset $end

$scope module i1 $end
$var wire 1 , gnd $end
$var wire 1 - vcc $end
$var wire 1 . unknown $end
$var wire 1 / devoe $end
$var wire 1 0 devclrn $end
$var wire 1 1 devpor $end
$var wire 1 2 ww_devoe $end
$var wire 1 3 ww_devclrn $end
$var wire 1 4 ww_devpor $end
$var wire 1 5 ww_clk $end
$var wire 1 6 ww_reset $end
$var wire 1 7 ww_load $end
$var wire 1 8 ww_dataIn [3] $end
$var wire 1 9 ww_dataIn [2] $end
$var wire 1 : ww_dataIn [1] $end
$var wire 1 ; ww_dataIn [0] $end
$var wire 1 < ww_dataOut [3] $end
$var wire 1 = ww_dataOut [2] $end
$var wire 1 > ww_dataOut [1] $end
$var wire 1 ? ww_dataOut [0] $end
$var wire 1 @ \dataOut[0]~output_o\ $end
$var wire 1 A \dataOut[1]~output_o\ $end
$var wire 1 B \dataOut[2]~output_o\ $end
$var wire 1 C \dataOut[3]~output_o\ $end
$var wire 1 D \clk~input_o\ $end
$var wire 1 E \dataIn[0]~input_o\ $end
$var wire 1 F \dataIn[1]~input_o\ $end
$var wire 1 G \dataIn[2]~input_o\ $end
$var wire 1 H \dataIn[3]~input_o\ $end
$var wire 1 I \load~input_o\ $end
$var wire 1 J \s_sreg~3_combout\ $end
$var wire 1 K \reset~input_o\ $end
$var wire 1 L \s_sreg~2_combout\ $end
$var wire 1 M \s_sreg~1_combout\ $end
$var wire 1 N \s_sreg~0_combout\ $end
$var wire 1 O s_sreg [3] $end
$var wire 1 P s_sreg [2] $end
$var wire 1 Q s_sreg [1] $end
$var wire 1 R s_sreg [0] $end
$var wire 1 S \ALT_INV_reset~input_o\ $end
$upscope $end
$upscope $end
$enddefinitions $end
#0
$dumpvars
0!
0*
1+
0,
1-
x.
1/
10
11
12
13
14
05
16
07
0@
0A
0B
0C
0D
0E
0F
0G
0H
0I
0J
1K
0L
0M
0N
0S
0"
0#
0$
0%
08
09
0:
0;
0<
0=
0>
0?
0O
0P
0Q
0R
0&
0'
0(
0)
$end
#20000
1%
1;
1E
#40000
1!
15
1D
#60000
0+
1*
06
17
1I
0K
1S
1N
#80000
0!
05
0D
#120000
1!
0*
15
07
0I
1D
1R
0N
1J
1@
1?
1)
#160000
0!
05
0D
#200000
1!
1"
15
18
1H
1D
1O
0R
0J
1L
0@
1C
0?
1<
0)
1&
#220000
1+
16
1K
0S
0O
0L
0C
0<
0&
#240000
0!
05
0D
#280000
1!
15
1D
#300000
0+
06
0K
1S
#320000
0!
05
0D
#340000
1*
17
1I
1J
1N
#360000
1!
15
1D
1O
1R
1@
1C
1?
1<
1)
1&
#400000
0!
05
0D
#420000
0*
07
0I
1L
0N
#440000
1!
15
1D
1P
0R
0J
1M
0@
1B
0?
1=
0)
1'
#480000
0!
05
0D
#520000
1!
15
1D
0O
1Q
1N
0L
1A
0C
1>
0<
1(
0&
#560000
0!
05
0D
#600000
1!
15
1D
0P
1R
1J
0M
1@
0B
1?
0=
1)
0'
#640000
0!
05
0D
#680000
1!
15
1D
1O
0Q
0N
1L
0A
1C
0>
1<
0(
1&
#720000
0!
05
0D
#760000
1!
15
1D
1P
0R
0J
1M
0@
1B
0?
1=
0)
1'
#800000
0!
05
0D
#840000
1!
15
1D
0O
1Q
1N
0L
1A
0C
1>
0<
1(
0&
#880000
0!
05
0D
#920000
1!
15
1D
0P
1R
1J
0M
1@
0B
1?
0=
1)
0'
#960000
0!
05
0D
