Praticas/P4/Parte1/simulation/qsim/FlipFlopD_Demo.msim.vcd
$comment
	File created using the following command:
		vcd file FlipFlopD_Demo.msim.vcd -direction
$end
$date
	Fri Mar 03 22:40:29 2023
$end
$version
	ModelSim Version 2020.1
$end
$timescale
	1ps
$end

$scope module flipflopd_vhd_vec_tst $end
$var wire 1 ! clk $end
$var wire 1 " d $end
$var wire 1 # q $end

$scope module i1 $end
$var wire 1 $ gnd $end
$var wire 1 % vcc $end
$var wire 1 & unknown $end
$var wire 1 ' devoe $end
$var wire 1 ( devclrn $end
$var wire 1 ) devpor $end
$var wire 1 * ww_devoe $end
$var wire 1 + ww_devclrn $end
$var wire 1 , ww_devpor $end
$var wire 1 - ww_clk $end
$var wire 1 . ww_d $end
$var wire 1 / ww_q $end
$var wire 1 0 \q~output_o\ $end
$var wire 1 1 \clk~input_o\ $end
$var wire 1 2 \d~input_o\ $end
$var wire 1 3 \q~reg0_q\ $end
$upscope $end
$upscope $end
$enddefinitions $end
#0
$dumpvars
0!
0"
0#
0$
1%
x&
1'
1(
1)
1*
1+
1,
0-
0.
0/
00
01
02
03
$end
#20000
1!
1-
11
#40000
0!
0-
01
#60000
1!
1-
11
#80000
0!
1"
0-
1.
12
01
#100000
1!
1-
11
13
10
1/
1#
#120000
0!
0-
01
#140000
1!
1-
11
#160000
0!
0"
0-
0.
02
01
#180000
1!
1-
11
03
00
0/
0#
#200000
0!
0-
01
#220000
1!
1-
11
#240000
0!
0-
01
#260000
1!
1-
11
#280000
0!
1"
0-
1.
12
01
#300000
1!
1-
11
13
10
1/
1#
#320000
0!
0-
01
#340000
1!
1-
11
#360000
0!
0"
0-
0.
02
01
#380000
1!
1-
11
03
00
0/
0#
#400000
0!
0-
01
#420000
1!
1-
11
#440000
0!
1"
0-
1.
12
01
#460000
1!
1-
11
13
10
1/
1#
#480000
0!
0-
01
#500000
1!
1-
11
#520000
0!
0"
0-
0.
02
01
#540000
1!
1-
11
03
00
0/
0#
#560000
0!
1"
0-
1.
12
01
#580000
1!
1-
11
13
10
1/
1#
#600000
0!
0"
0-
0.
02
01
#620000
1!
1-
11
03
00
0/
0#
#640000
0!
1"
0-
1.
12
01
#660000
1!
1-
11
13
10
1/
1#
#680000
0!
0"
0-
0.
02
01
#700000
1!
1-
11
03
00
0/
0#
#720000
0!
0-
01
#740000
1!
1-
11
#760000
0!
0-
01
#780000
1!
1-
11
#800000
0!
0-
01
#820000
1!
1-
11
#840000
0!
1"
0-
1.
12
01
#860000
1!
1-
11
13
10
1/
1#
#880000
0!
0-
01
#900000
1!
1-
11
#920000
0!
0-
01
#940000
1!
1-
11
#960000
0!
0-
01
#980000
1!
1-
11
