Praticas/Mini-projeto/Main/simulation/qsim/TimerDemo.msim.vcd
$comment
	File created using the following command:
		vcd file TimerDemo.msim.vcd -direction
$end
$date
	Tue Apr 18 18:38:23 2023
$end
$version
	ModelSim Version 2020.1
$end
$timescale
	1ps
$end

$scope module timer_vhd_vec_tst $end
$var wire 1 ! clk $end
$var wire 1 " enable $end
$var wire 1 # mode $end
$var wire 1 $ reset $end
$var wire 1 % startReady $end
$var wire 1 & startStop $end
$var wire 1 ' valOut [4] $end
$var wire 1 ( valOut [3] $end
$var wire 1 ) valOut [2] $end
$var wire 1 * valOut [1] $end
$var wire 1 + valOut [0] $end

$scope module i1 $end
$var wire 1 , gnd $end
$var wire 1 - vcc $end
$var wire 1 . unknown $end
$var wire 1 / devoe $end
$var wire 1 0 devclrn $end
$var wire 1 1 devpor $end
$var wire 1 2 ww_devoe $end
$var wire 1 3 ww_devclrn $end
$var wire 1 4 ww_devpor $end
$var wire 1 5 ww_enable $end
$var wire 1 6 ww_reset $end
$var wire 1 7 ww_startStop $end
$var wire 1 8 ww_clk $end
$var wire 1 9 ww_valOut [4] $end
$var wire 1 : ww_valOut [3] $end
$var wire 1 ; ww_valOut [2] $end
$var wire 1 < ww_valOut [1] $end
$var wire 1 = ww_valOut [0] $end
$var wire 1 > ww_mode $end
$var wire 1 ? ww_startReady $end
$var wire 1 @ \valOut[0]~output_o\ $end
$var wire 1 A \valOut[1]~output_o\ $end
$var wire 1 B \valOut[2]~output_o\ $end
$var wire 1 C \valOut[3]~output_o\ $end
$var wire 1 D \valOut[4]~output_o\ $end
$var wire 1 E \mode~output_o\ $end
$var wire 1 F \startReady~output_o\ $end
$var wire 1 G \clk~input_o\ $end
$var wire 1 H \Add0~0_combout\ $end
$var wire 1 I \reset~input_o\ $end
$var wire 1 J \Add0~1\ $end
$var wire 1 K \Add0~3_combout\ $end
$var wire 1 L \Equal0~0_combout\ $end
$var wire 1 M \Add0~5_combout\ $end
$var wire 1 N \enable~input_o\ $end
$var wire 1 O \s_mode~0_combout\ $end
$var wire 1 P \s_startReady~2_combout\ $end
$var wire 1 Q \startStop~input_o\ $end
$var wire 1 R \s_mode~1_combout\ $end
$var wire 1 S \s_mode~q\ $end
$var wire 1 T \s_value[0]~0_combout\ $end
$var wire 1 U \Add0~4\ $end
$var wire 1 V \Add0~6_combout\ $end
$var wire 1 W \Add0~8_combout\ $end
$var wire 1 X \Add0~7\ $end
$var wire 1 Y \Add0~9_combout\ $end
$var wire 1 Z \Add0~11_combout\ $end
$var wire 1 [ \Add0~10\ $end
$var wire 1 \ \Add0~12_combout\ $end
$var wire 1 ] \Add0~14_combout\ $end
$var wire 1 ^ \Add0~2_combout\ $end
$var wire 1 _ \s_startReady~3_combout\ $end
$var wire 1 ` \s_startReady~q\ $end
$var wire 1 a s_value [4] $end
$var wire 1 b s_value [3] $end
$var wire 1 c s_value [2] $end
$var wire 1 d s_value [1] $end
$var wire 1 e s_value [0] $end
$var wire 1 f \ALT_INV_s_startReady~q\ $end
$var wire 1 g ALT_INV_s_value [4] $end
$var wire 1 h ALT_INV_s_value [3] $end
$var wire 1 i ALT_INV_s_value [2] $end
$upscope $end
$upscope $end
$enddefinitions $end
#0
$dumpvars
1!
1"
0#
1$
1%
0&
0,
1-
x.
1/
10
11
12
13
14
15
16
07
18
0>
1?
0@
0A
1B
0C
1D
0E
1F
1G
1H
1I
0J
1K
0L
0M
1N
0O
0P
0Q
0R
0S
1T
1U
0V
0W
1X
0Y
0Z
0[
1\
0]
0^
0_
0`
1f
19
0:
1;
0<
0=
0a
0b
0c
0d
0e
1g
xh
1i
1'
0(
1)
0*
0+
$end
#10000
0!
08
0G
#20000
1!
0$
18
06
0I
1G
1M
1P
0T
1W
1^
#30000
0!
08
0G
#40000
1!
18
1G
#50000
0!
08
0G
#60000
1!
18
1G
#70000
0!
08
0G
#80000
1!
18
1G
#90000
0!
1&
08
17
1Q
0G
1R
#100000
1!
18
1G
1S
1O
0R
1T
1_
1E
1>
1#
#110000
0!
0&
08
07
0Q
0G
1R
#120000
1!
18
1G
1d
1c
1e
1`
0f
0i
0H
1J
1V
0X
0K
0U
0V
1X
0M
1Y
1[
0W
1K
0^
1@
1A
0B
0F
1M
0\
1Z
0Y
0[
1W
1=
1<
0;
0?
1+
1*
1\
0Z
1]
0)
0%
0]
#130000
0!
08
0G
#140000
1!
18
1G
0e
1H
0J
0K
1^
0@
0M
0=
0+
#150000
0!
08
0G
#160000
1!
18
1G
0d
1e
0H
1J
1K
1U
1V
0X
1M
0K
0U
0^
1@
0A
0V
1X
0M
1Y
1[
0W
1=
0<
1+
0*
0\
1Z
0Y
0[
1W
1\
0Z
1]
0]
#170000
0!
08
0G
#180000
1!
18
1G
0e
1H
0J
1L
1K
1U
1^
0@
1V
0X
1M
0=
0+
1Y
1[
0W
0\
1Z
1]
#190000
0!
08
0G
#200000
1!
18
1G
1d
0c
1b
1a
1e
0g
1i
0H
1J
0M
0P
0Z
1\
0]
0^
0Y
0[
0V
1X
0K
0U
0L
1P
1V
1Y
1W
0\
0R
0_
1K
1@
1C
1A
1B
0D
1M
1]
1Z
0W
1R
1_
1=
1:
1<
1;
09
1+
1*
1(
1)
0'
#210000
0!
08
0G
#220000
1!
18
1G
0e
1H
0J
0K
1^
0@
0M
0=
0+
#230000
0!
08
0G
#240000
1!
18
1G
0d
1e
0H
1J
1K
1U
0V
1M
0K
0U
0^
1@
0A
1V
0M
1W
1=
0<
1+
0*
0W
#250000
0!
1&
08
17
1Q
0G
0R
#260000
1!
18
1G
0S
0e
1H
0J
0O
1R
0T
1K
1U
1^
0@
0E
0V
1M
0=
0>
0+
0#
1W
#270000
0!
0&
08
07
0Q
0G
0R
#280000
1!
18
1G
#290000
0!
08
0G
#300000
1!
18
1G
#310000
0!
08
0G
#320000
1!
18
1G
#330000
0!
08
0G
#340000
1!
18
1G
#350000
0!
08
0G
#360000
1!
18
1G
#370000
0!
08
0G
#380000
1!
18
1G
#390000
0!
1&
08
17
1Q
0G
1R
#400000
1!
18
1G
1S
1O
0R
1T
1E
1>
1#
#410000
0!
0&
08
07
0Q
0G
1R
#420000
1!
18
1G
1d
1c
1e
0i
0H
1J
1V
0X
0K
0U
0V
1X
0M
0Y
0W
1K
0^
1@
1A
0B
1M
0Z
1Y
1W
1=
1<
0;
1+
1*
1Z
0)
#430000
0!
08
0G
#440000
1!
18
1G
0e
1H
0J
0K
1^
0@
0M
0=
0+
#450000
0!
08
0G
#460000
1!
18
1G
0d
1e
0H
1J
1K
1U
1V
0X
1M
0K
0U
0^
1@
0A
0V
1X
0M
0Y
0W
1=
0<
1+
0*
0Z
1Y
1W
1Z
#470000
0!
08
0G
#480000
1!
18
1G
0e
1H
0J
1K
1U
1^
0@
1V
0X
1M
0=
0+
0Y
0W
0Z
#490000
0!
08
0G
#500000
1!
18
1G
1d
0c
0b
1e
1i
0H
1J
1Y
1[
0V
1X
0K
0U
1V
0M
0Y
0[
1W
1\
1Z
1K
0^
1@
0C
1A
1B
1M
0]
0\
0Z
0W
1=
0:
1<
1;
1+
1*
0(
1]
1)
#510000
0!
08
0G
#520000
1!
18
1G
0e
1H
0J
0K
1^
0@
0M
0=
0+
#530000
0!
08
0G
#540000
1!
18
1G
0d
1e
0H
1J
1K
1U
0V
1M
0K
0U
0^
1@
0A
1V
0M
1W
1=
0<
1+
0*
0W
#550000
0!
08
0G
#560000
1!
18
1G
0e
1H
0J
1K
1U
1^
0@
0V
1M
0=
0+
1W
#570000
0!
08
0G
#580000
1!
18
1G
1d
1c
1e
0i
0H
1J
1V
0X
0K
0U
0V
1X
0M
1Y
1[
0W
1K
0^
1@
1A
0B
1M
1\
1Z
0Y
0[
1W
1=
1<
0;
1+
1*
0\
0Z
0]
0)
1]
#590000
0!
08
0G
#600000
1!
18
1G
0e
1H
0J
0K
1^
0@
0M
0=
0+
#610000
0!
08
0G
#620000
1!
18
1G
0d
1e
0H
1J
1K
1U
1V
0X
1M
0K
0U
0^
1@
0A
0V
1X
0M
1Y
1[
0W
1=
0<
1+
0*
1\
1Z
0Y
0[
1W
0\
0Z
0]
1]
#630000
0!
08
0G
#640000
1!
18
1G
0e
1H
0J
1L
0P
0W
0]
1K
1U
0@
1V
0X
0R
0_
0=
0+
1Y
1[
1\
#650000
0!
08
0G
#660000
1!
18
1G
0S
0c
0a
0`
1f
1g
1i
1M
1P
1Z
0\
1^
0L
0V
1X
0O
0T
0Y
0[
1W
1]
0E
1B
1D
1F
1\
0Z
0>
1;
19
1?
0#
0]
1)
1'
1%
#670000
0!
08
0G
#680000
1!
18
1G
#690000
0!
08
0G
#700000
1!
18
1G
#710000
0!
08
0G
#720000
1!
18
1G
#730000
0!
08
0G
#740000
1!
18
1G
#750000
0!
08
0G
#760000
1!
18
1G
#770000
0!
08
0G
#780000
1!
18
1G
#790000
0!
08
0G
#800000
1!
18
1G
#810000
0!
08
0G
#820000
1!
18
1G
#830000
0!
08
0G
#840000
1!
18
1G
#850000
0!
08
0G
#860000
1!
18
1G
#870000
0!
08
0G
#880000
1!
18
1G
#890000
0!
08
0G
#900000
1!
18
1G
#910000
0!
08
0G
#920000
1!
18
1G
#930000
0!
08
0G
#940000
1!
18
1G
#950000
0!
08
0G
#960000
1!
18
1G
#970000
0!
08
0G
#980000
1!
18
1G
#990000
0!
08
0G
