Praticas/P1/Parte4/simulation/qsim/EqCmpDemo.msim.vcd
$comment
	File created using the following command:
		vcd file EqCmpDemo.msim.vcd -direction
$end
$date
	Tue Feb 14 12:24:56 2023
$end
$version
	ModelSim Version 2020.1
$end
$timescale
	1ps
$end

$scope module eqcmp4_vhd_vec_tst $end
$var wire 1 ! cmpOut $end
$var wire 1 " input0 [3] $end
$var wire 1 # input0 [2] $end
$var wire 1 $ input0 [1] $end
$var wire 1 % input0 [0] $end
$var wire 1 & input1 [3] $end
$var wire 1 ' input1 [2] $end
$var wire 1 ( input1 [1] $end
$var wire 1 ) input1 [0] $end

$scope module i1 $end
$var wire 1 * gnd $end
$var wire 1 + vcc $end
$var wire 1 , unknown $end
$var wire 1 - devoe $end
$var wire 1 . devclrn $end
$var wire 1 / devpor $end
$var wire 1 0 ww_devoe $end
$var wire 1 1 ww_devclrn $end
$var wire 1 2 ww_devpor $end
$var wire 1 3 ww_cmpOut $end
$var wire 1 4 ww_input1 [3] $end
$var wire 1 5 ww_input1 [2] $end
$var wire 1 6 ww_input1 [1] $end
$var wire 1 7 ww_input1 [0] $end
$var wire 1 8 ww_input0 [3] $end
$var wire 1 9 ww_input0 [2] $end
$var wire 1 : ww_input0 [1] $end
$var wire 1 ; ww_input0 [0] $end
$var wire 1 < \cmpOut~output_o\ $end
$var wire 1 = \input1[3]~input_o\ $end
$var wire 1 > \input1[2]~input_o\ $end
$var wire 1 ? \input0[2]~input_o\ $end
$var wire 1 @ \input0[3]~input_o\ $end
$var wire 1 A \AND4~0_combout\ $end
$var wire 1 B \input1[1]~input_o\ $end
$var wire 1 C \input1[0]~input_o\ $end
$var wire 1 D \input0[0]~input_o\ $end
$var wire 1 E \input0[1]~input_o\ $end
$var wire 1 F \AND4~1_combout\ $end
$var wire 1 G \AND4~combout\ $end
$upscope $end
$upscope $end
$enddefinitions $end
#0
$dumpvars
0!
0*
1+
x,
1-
1.
1/
10
11
12
03
0<
1=
0>
1?
0@
0A
1B
1C
1D
0E
0F
0G
0"
1#
0$
1%
1&
0'
1(
1)
14
05
16
17
08
19
0:
1;
$end
#10000
0&
04
0=
#20000
1&
1"
0#
0%
1'
0(
06
15
14
0;
09
18
1@
0?
0D
1=
1>
0B
#30000
0&
1#
1%
1(
1$
0)
07
16
04
1;
1:
19
1?
1E
1D
0=
1B
0C
#40000
0#
09
0?
#50000
1#
1&
0(
1)
0"
19
08
17
06
14
1=
0B
1C
0@
1?
#60000
0#
0&
1(
1"
0'
09
18
16
05
04
0=
0>
1B
1@
0?
1F
#70000
1#
1&
0(
0"
1'
0%
0;
19
08
06
15
14
1=
1>
0B
0@
1?
0D
0F
#80000
0#
0&
1(
1"
1%
0$
1;
0:
09
18
16
04
0=
1B
1@
0?
0E
1D
#90000
0(
1$
06
1:
1E
0B
#100000
0$
0)
0:
07
0C
0E
#110000
1$
0"
1:
08
0@
1E
#120000
1)
17
1C
#130000
0)
0$
1"
1(
0%
07
16
0;
0:
18
1@
0E
0D
1B
0C
#140000
1$
1&
1:
14
1=
1E
1F
#150000
0&
1)
0(
0'
17
06
05
04
0=
0>
0B
1C
0F
#160000
0)
0$
1%
1#
07
1;
0:
19
1?
0E
1D
0C
#170000
1)
0#
1(
17
16
09
0?
1B
1C
#180000
1$
1&
1:
14
1=
1E
1F
1A
1G
1<
13
1!
#190000
0$
0&
1#
0(
0%
0"
0;
0:
19
08
06
04
0=
0B
0@
1?
0E
0D
0F
0A
0G
0<
03
0!
#200000
1$
1(
1"
1'
1:
18
16
15
1>
1B
1@
1E
#210000
0(
0"
0'
1&
06
05
14
08
0@
1=
0>
0B
#220000
1'
15
1>
#230000
0'
1%
0)
07
05
1;
1D
0>
0C
#240000
1'
0%
1"
15
0;
18
1@
0D
1>
1A
#250000
1%
0"
1(
0$
1;
0:
08
16
1B
0@
0E
1D
0A
#260000
1"
0(
1$
0#
1:
09
18
06
0B
1@
0?
1E
#270000
0%
0'
0;
05
0>
0D
1A
#280000
1'
1(
0$
1)
0&
17
16
15
04
0:
0E
0=
1>
1B
1C
0A
#290000
0(
1$
0)
1&
1%
1#
07
06
14
1;
1:
19
1?
1E
1D
1=
0B
0C
1A
#300000
0$
1)
0%
0'
0;
0:
17
05
0>
1C
0E
0D
0A
#310000
1(
0&
16
04
0=
1B
#320000
1&
0#
14
09
0?
1=
1A
#330000
1#
0(
0)
1%
1'
0"
1;
19
08
07
06
15
1>
0B
0C
0@
1?
1D
0A
#340000
0'
05
0>
#350000
1'
1(
0&
1$
16
15
04
1:
1E
0=
1>
1B
1A
#360000
1&
1)
17
14
1=
1C
1F
0A
#370000
0)
0'
0(
0#
07
06
05
09
0?
0>
0B
0C
0F
#380000
0&
0%
1"
04
0;
18
1@
0D
0=
#390000
1&
1#
14
19
1?
1=
#400000
0&
0#
1%
0"
1(
16
04
1;
09
08
0@
0?
1D
0=
1B
1A
#410000
0%
0(
0;
06
0B
0D
#420000
1(
1#
1"
1'
16
15
19
18
1@
1?
1>
1B
1F
0A
#430000
0(
0#
0'
1%
1)
17
06
05
1;
09
0?
1D
0>
0B
1C
0F
#440000
1(
1#
1'
0"
1&
16
15
14
19
08
0@
1?
1=
1>
1B
1F
#450000
0&
04
0=
1A
1G
1<
13
1!
#460000
1&
0#
0'
1"
0%
0)
07
05
14
0;
09
18
1@
0?
0D
1=
0>
0C
#470000
0&
0"
0(
0$
06
04
0:
08
0@
0E
0=
0B
#480000
1%
1)
1;
17
1C
1D
#490000
0%
0)
1&
1"
1#
1'
0;
19
18
07
15
14
1=
1>
0C
1@
1?
0D
#500000
1%
1)
0&
0"
0#
0'
1(
1$
1;
1:
09
08
17
16
05
04
0=
0>
1B
1C
0@
0?
1E
1D
#510000
1#
1'
0(
0$
0:
19
06
15
1>
0B
1?
0E
#520000
1&
1"
14
18
1@
1=
#530000
0#
0'
1(
1$
1:
09
16
05
0>
1B
0?
1E
#540000
1#
1'
0(
0$
0&
0"
0%
0)
0;
0:
19
08
07
06
15
04
0=
1>
0B
0C
0@
1?
0E
0D
#550000
0#
0'
09
05
0>
0?
#560000
1#
1'
1(
1$
1&
1"
1:
19
18
16
15
14
1=
1>
1B
1@
1?
1E
#570000
0#
0'
0$
0&
0:
09
05
04
0=
0>
0?
0E
0F
0A
0G
0<
03
0!
#580000
1$
1&
1%
1)
1;
1:
17
14
1=
1C
1E
1D
1F
1A
1G
1<
13
1!
#590000
0$
0&
0)
1#
0:
19
07
04
0=
0C
1?
0E
0F
0A
0G
0<
03
0!
#600000
1$
1&
0%
0(
0"
0;
1:
08
06
14
1=
0B
0@
1E
0D
#610000
0&
1%
1(
1)
0#
1'
17
16
15
04
1;
09
0?
1D
0=
1>
1B
1C
1F
#620000
1&
0%
0)
0'
07
05
14
0;
0D
1=
0>
0C
#630000
0&
1)
1"
17
04
18
1@
0=
1C
0F
#640000
1&
0)
0"
1%
0$
07
14
1;
0:
08
0@
0E
1D
1=
0C
#650000
1)
0%
1$
1'
17
15
0;
1:
1E
0D
1>
1C
#660000
0$
1"
0(
1#
0:
19
18
06
0B
1@
1?
0E
1A
#670000
0#
0)
1%
0'
1;
09
07
05
0>
0C
0?
1D
#680000
0%
0"
1(
0&
0;
08
16
04
0=
1B
0@
0D
#690000
0(
1$
06
1:
1E
0B
#700000
1(
1%
1#
1)
17
16
1;
19
1?
1D
1B
1C
1F
0A
#710000
0(
0)
1&
1'
07
06
15
14
1=
1>
0B
0C
0F
#720000
1)
0&
0'
0%
0$
17
05
04
0;
0:
0E
0D
0=
0>
1C
#730000
0)
1%
1(
07
16
1;
1D
1B
0C
#740000
0(
0#
1"
06
09
18
1@
0?
0B
#750000
1#
1)
1&
1'
19
17
15
14
1=
1>
1C
1?
1F
1A
1G
1<
13
1!
#760000
0&
0'
1(
1$
16
05
04
1:
1E
0=
0>
1B
0A
0G
0<
03
0!
#770000
1&
1'
0$
0)
07
15
14
0:
0E
1=
1>
0C
1A
0F
#780000
1$
0(
1:
06
0B
1E
#790000
1(
0&
0#
16
04
09
0?
0=
1B
0A
#800000
0(
1&
0'
1)
0%
17
06
05
14
0;
0D
1=
0>
0B
1C
1A
#810000
1(
1'
1#
0$
16
15
0:
19
1?
0E
1>
1B
#820000
0#
1$
0"
1:
09
08
0@
0?
1E
0A
#830000
1"
0'
0)
18
07
05
0>
0C
1@
1F
1A
1G
1<
13
1!
#840000
0"
1'
1#
0&
19
08
15
04
0=
1>
0@
1?
#850000
1"
0#
0$
0(
0:
09
18
06
0B
1@
0?
0E
0A
0G
0<
03
0!
#860000
1$
1(
0'
1:
16
05
0>
1B
1E
#870000
1'
1#
1&
15
14
19
1?
1=
1>
1A
1G
1<
13
1!
#880000
0'
0#
1)
1%
17
05
1;
09
0?
1D
0>
1C
#890000
0$
0(
0:
06
0B
0E
#900000
1$
1(
1#
0&
1:
19
16
04
0=
1B
1?
1E
0A
0G
0<
03
0!
#910000
0$
0(
0#
1&
0)
0"
0:
09
08
07
06
14
1=
0B
0C
0@
0?
0E
0F
#920000
1)
1"
1'
17
15
18
1@
1>
1C
1F
#930000
0"
0'
0&
0%
0;
08
05
04
0=
0>
0@
0D
0F
1A
#940000
1%
1;
1D
1F
1G
1<
13
1!
#950000
0)
07
0C
0F
0G
0<
03
0!
#960000
1)
1"
1&
1(
1#
17
16
14
19
18
1@
1?
1=
1B
1C
0A
#970000
0)
0"
0&
0(
0#
0%
1'
1$
07
06
15
04
0;
1:
09
08
0@
0?
1E
0D
0=
1>
0B
0C
#980000
1)
1#
1%
0$
17
1;
0:
19
1?
0E
1D
1C
1F
1A
1G
1<
13
1!
#990000
0)
0#
0%
0'
07
05
0;
09
0?
0D
0>
0C
