Praticas/P2/Parte4/simulation/qsim/PEnc4_2Demo.msim.vcd
$comment
	File created using the following command:
		vcd file PEnc4_2Demo.msim.vcd -direction
$end
$date
	Sat Feb 25 19:45:13 2023
$end
$version
	ModelSim Version 2020.1
$end
$timescale
	1ps
$end

$scope module penc4_2_vhd_vec_tst $end
$var wire 1 ! decodedln [3] $end
$var wire 1 " decodedln [2] $end
$var wire 1 # decodedln [1] $end
$var wire 1 $ decodedln [0] $end
$var wire 1 % encodedOut [1] $end
$var wire 1 & encodedOut [0] $end
$var wire 1 ' validOut $end

$scope module i1 $end
$var wire 1 ( gnd $end
$var wire 1 ) vcc $end
$var wire 1 * unknown $end
$var wire 1 + devoe $end
$var wire 1 , devclrn $end
$var wire 1 - devpor $end
$var wire 1 . ww_devoe $end
$var wire 1 / ww_devclrn $end
$var wire 1 0 ww_devpor $end
$var wire 1 1 ww_decodedln [3] $end
$var wire 1 2 ww_decodedln [2] $end
$var wire 1 3 ww_decodedln [1] $end
$var wire 1 4 ww_decodedln [0] $end
$var wire 1 5 ww_encodedOut [1] $end
$var wire 1 6 ww_encodedOut [0] $end
$var wire 1 7 ww_validOut $end
$var wire 1 8 \encodedOut[0]~output_o\ $end
$var wire 1 9 \encodedOut[1]~output_o\ $end
$var wire 1 : \validOut~output_o\ $end
$var wire 1 ; \decodedln[3]~input_o\ $end
$var wire 1 < \decodedln[1]~input_o\ $end
$var wire 1 = \decodedln[2]~input_o\ $end
$var wire 1 > \encodedOut~0_combout\ $end
$var wire 1 ? \decodedln[0]~input_o\ $end
$var wire 1 @ \Equal0~0_combout\ $end
$var wire 1 A \encodedOut[0]$latch~combout\ $end
$var wire 1 B \Equal0~1_combout\ $end
$var wire 1 C \encodedOut[1]$latch~combout\ $end
$var wire 1 D \ALT_INV_Equal0~0_combout\ $end
$upscope $end
$upscope $end
$enddefinitions $end
#0
$dumpvars
0'
0(
1)
x*
1+
1,
1-
1.
1/
10
07
x8
x9
0:
0;
0<
0=
0>
0?
1@
xA
1B
xC
0D
0!
0"
0#
0$
01
02
03
04
x5
x6
x%
x&
$end
#40000
1$
14
1?
0@
1D
0A
0C
1:
09
08
17
05
06
1'
0&
0%
#80000
0$
1#
04
13
1<
0?
1>
1A
18
16
1&
#120000
1$
14
1?
#160000
0$
0#
1"
04
03
12
1=
0<
0?
0>
0B
1C
0A
08
19
06
15
0&
1%
#200000
1$
14
1?
#240000
0$
1#
04
13
1<
0?
#280000
1$
14
1?
#320000
0$
0#
0"
1!
04
03
02
11
1;
0=
0<
0?
1>
1A
18
16
1&
#360000
1$
14
1?
#400000
0$
1#
04
13
1<
0?
#440000
1$
14
1?
#480000
0$
0#
1"
04
03
12
1=
0<
0?
#520000
1$
14
1?
#560000
0$
1#
04
13
1<
0?
#600000
1$
14
1?
#640000
0$
0#
0"
0!
04
03
02
01
0;
0=
0<
0?
0>
1@
1B
0D
0:
07
0'
#680000
1$
14
1?
0@
1D
0A
0C
1:
09
08
17
05
06
1'
0&
0%
#720000
0$
1#
04
13
1<
0?
1>
1A
18
16
1&
#760000
1$
14
1?
#800000
0$
0#
1"
04
03
12
1=
0<
0?
0>
0B
1C
0A
08
19
06
15
0&
1%
#840000
1$
14
1?
#880000
0$
1#
04
13
1<
0?
#920000
1$
14
1?
#960000
0$
0#
0"
1!
04
03
02
11
1;
0=
0<
0?
1>
1A
18
16
1&
